tomadecision/simulation/qsim/decision.msim.vcd
$comment
	File created using the following command:
		vcd file decision.msim.vcd -direction
$end
$date
	Tue Nov 26 23:14:00 2024
$end
$version
	ModelSim Version 10.1d
$end
$timescale
	1ps
$end
$scope module decisionfinal_vlg_vec_tst $end
$var reg 1 ! clk $end
$var reg 1 " clk1 $end
$var reg 1 # clk8 $end
$var reg 1 $ O0 $end
$var reg 1 % O1 $end
$var reg 1 & reset $end
$var reg 1 ' reset2 $end
$var reg 1 ( reset3 $end
$var reg 4 ) V1 [3:0] $end
$var reg 4 * V2 [3:0] $end
$var reg 4 + V3 [3:0] $end
$var reg 4 , V4 [3:0] $end
$var wire 1 - ea $end
$var wire 1 . eg $end
$var wire 1 / GD $end
$var wire 1 0 GI $end
$var wire 1 1 NGD $end
$var wire 1 2 NGI $end
$var wire 1 3 NO0 $end
$var wire 1 4 NO1 $end
$var wire 1 5 sampler $end
$scope module i1 $end
$var wire 1 6 gnd $end
$var wire 1 7 vcc $end
$var wire 1 8 unknown $end
$var tri1 1 9 devclrn $end
$var tri1 1 : devpor $end
$var tri1 1 ; devoe $end
$var wire 1 < inst|LessThan10~2_combout $end
$var wire 1 = inst|LessThan15~2_combout $end
$var wire 1 > inst|process_0~6_combout $end
$var wire 1 ? inst|LessThan22~1_combout $end
$var wire 1 @ inst|LessThan19~0_combout $end
$var wire 1 A inst|LessThan2~0_combout $end
$var wire 1 B inst|LessThan2~1_combout $end
$var wire 1 C inst|LessThan2~2_combout $end
$var wire 1 D inst|process_0~13_combout $end
$var wire 1 E inst|ea~6_combout $end
$var wire 1 F inst|Mux0~3_combout $end
$var wire 1 G inst|GI~2_combout $end
$var wire 1 H inst|process_0~14_combout $end
$var wire 1 I inst|GI~5_combout $end
$var wire 1 J inst|Mux1~5_combout $end
$var wire 1 K inst|Mux1~6_combout $end
$var wire 1 L V1[2]~input_o $end
$var wire 1 M V3[1]~input_o $end
$var wire 1 N O0~input_o $end
$var wire 1 O O1~input_o $end
$var wire 1 P clk1~input_o $end
$var wire 1 Q clk8~input_o $end
$var wire 1 R clk8~inputclkctrl_outclk $end
$var wire 1 S clk1~inputclkctrl_outclk $end
$var wire 1 T ea~output_o $end
$var wire 1 U eg~output_o $end
$var wire 1 V GI~output_o $end
$var wire 1 W GD~output_o $end
$var wire 1 X NO0~output_o $end
$var wire 1 Y NO1~output_o $end
$var wire 1 Z NGI~output_o $end
$var wire 1 [ NGD~output_o $end
$var wire 1 \ clk~input_o $end
$var wire 1 ] clk~inputclkctrl_outclk $end
$var wire 1 ^ V4[3]~input_o $end
$var wire 1 _ V2[2]~input_o $end
$var wire 1 ` V2[3]~input_o $end
$var wire 1 a inst|LessThan22~0_combout $end
$var wire 1 b inst|LessThan22~2_combout $end
$var wire 1 c V1[3]~input_o $end
$var wire 1 d inst|LessThan15~0_combout $end
$var wire 1 e V2[1]~input_o $end
$var wire 1 f V1[0]~input_o $end
$var wire 1 g V1[1]~input_o $end
$var wire 1 h inst|LessThan15~1_combout $end
$var wire 1 i inst|LessThan15~3_combout $end
$var wire 1 j inst|process_0~16_combout $end
$var wire 1 k V3[3]~input_o $end
$var wire 1 l V3[2]~input_o $end
$var wire 1 m inst|LessThan8~0_combout $end
$var wire 1 n inst|LessThan8~2_combout $end
$var wire 1 o V3[0]~input_o $end
$var wire 1 p V2[0]~input_o $end
$var wire 1 q inst|LessThan8~1_combout $end
$var wire 1 r inst|LessThan8~3_combout $end
$var wire 1 s inst|GI~1_combout $end
$var wire 1 t inst|LessThan19~1_combout $end
$var wire 1 u inst|LessThan19~2_combout $end
$var wire 1 v V4[2]~input_o $end
$var wire 1 w inst|LessThan11~2_combout $end
$var wire 1 x inst|LessThan23~0_combout $end
$var wire 1 y V4[1]~input_o $end
$var wire 1 z V4[0]~input_o $end
$var wire 1 { inst|LessThan23~1_combout $end
$var wire 1 | inst|LessThan23~2_combout $end
$var wire 1 } inst|Mux1~4_combout $end
$var wire 1 ~ inst|Mux1~7_combout $end
$var wire 1 !! reset~input_o $end
$var wire 1 "! reset~inputclkctrl_outclk $end
$var wire 1 #! inst6|salida_anterior[1]~1_combout $end
$var wire 1 $! reset3~input_o $end
$var wire 1 %! reset3~inputclkctrl_outclk $end
$var wire 1 &! inst6|salida_anterior[0]~0_combout $end
$var wire 1 '! inst6|Equal0~0_combout $end
$var wire 1 (! inst6|contador_int[1]~0_combout $end
$var wire 1 )! inst6|contador_int[1]~1_combout $end
$var wire 1 *! inst6|contador_int[0]~2_combout $end
$var wire 1 +! inst3|9~0_combout $end
$var wire 1 ,! inst|ea~0_combout $end
$var wire 1 -! inst|LessThan22~3_combout $end
$var wire 1 .! inst|process_0~12_combout $end
$var wire 1 /! inst|LessThan18~2_combout $end
$var wire 1 0! inst|LessThan3~0_combout $end
$var wire 1 1! inst|LessThan3~1_combout $end
$var wire 1 2! inst|LessThan3~2_combout $end
$var wire 1 3! inst|LessThan21~0_combout $end
$var wire 1 4! inst|LessThan21~1_combout $end
$var wire 1 5! inst|LessThan21~2_combout $end
$var wire 1 6! inst|ea~4_combout $end
$var wire 1 7! inst|LessThan18~1_combout $end
$var wire 1 8! inst|LessThan18~0_combout $end
$var wire 1 9! inst|LessThan18~3_combout $end
$var wire 1 :! inst|LessThan11~1_combout $end
$var wire 1 ;! inst|process_0~8_combout $end
$var wire 1 <! inst|Mux0~5_combout $end
$var wire 1 =! inst|Mux0~2_combout $end
$var wire 1 >! inst|Mux0~4_combout $end
$var wire 1 ?! inst|GI~q $end
$var wire 1 @! inst4|9~0_combout $end
$var wire 1 A! inst2|Mux1~0_combout $end
$var wire 1 B! inst2|Mux1~1_combout $end
$var wire 1 C! inst2|NO0~q $end
$var wire 1 D! inst|LessThan5~0_combout $end
$var wire 1 E! inst|LessThan5~1_combout $end
$var wire 1 F! inst|LessThan5~2_combout $end
$var wire 1 G! inst|process_0~9_combout $end
$var wire 1 H! inst|Mux1~8_combout $end
$var wire 1 I! inst|LessThan11~0_combout $end
$var wire 1 J! inst|LessThan10~0_combout $end
$var wire 1 K! inst|LessThan10~1_combout $end
$var wire 1 L! inst|LessThan10~3_combout $end
$var wire 1 M! inst|process_0~7_combout $end
$var wire 1 N! inst|ea~2_combout $end
$var wire 1 O! inst|GI~0_combout $end
$var wire 1 P! inst|process_0~10_combout $end
$var wire 1 Q! inst|process_0~11_combout $end
$var wire 1 R! inst|GI~3_combout $end
$var wire 1 S! inst|GI~4_combout $end
$var wire 1 T! inst|GI~6_combout $end
$var wire 1 U! inst|GD~q $end
$var wire 1 V! inst2|Mux0~0_combout $end
$var wire 1 W! inst2|Mux0~1_combout $end
$var wire 1 X! inst2|NO1~q $end
$var wire 1 Y! inst|process_0~15_combout $end
$var wire 1 Z! inst|ea~1_combout $end
$var wire 1 [! inst|ea~5_combout $end
$var wire 1 \! inst|ea~3_combout $end
$var wire 1 ]! inst|Mux2~0_combout $end
$var wire 1 ^! inst|Mux2~1_combout $end
$var wire 1 _! inst|ea~q $end
$var wire 1 `! inst|eg~0_combout $end
$var wire 1 a! inst|eg~3_combout $end
$var wire 1 b! inst|eg~1_combout $end
$var wire 1 c! inst|eg~2_combout $end
$var wire 1 d! inst|Mux3~0_combout $end
$var wire 1 e! inst|Mux3~1_combout $end
$var wire 1 f! inst|eg~q $end
$var wire 1 g! inst1|Selector2~0_combout $end
$var wire 1 h! reset2~input_o $end
$var wire 1 i! reset2~inputclkctrl_outclk $end
$var wire 1 j! inst1|state.D~q $end
$var wire 1 k! inst1|Selector0~1_combout $end
$var wire 1 l! inst1|Selector3~0_combout $end
$var wire 1 m! inst1|state.R~q $end
$var wire 1 n! inst1|Selector0~0_combout $end
$var wire 1 o! inst1|Selector0~2_combout $end
$var wire 1 p! inst1|state.ocioso~q $end
$var wire 1 q! inst1|NGI~0_combout $end
$var wire 1 r! inst1|Selector1~0_combout $end
$var wire 1 s! inst1|state.I~q $end
$var wire 1 t! inst1|NGD~0_combout $end
$var wire 1 u! inst6|salida_anterior [1] $end
$var wire 1 v! inst6|salida_anterior [0] $end
$var wire 1 w! inst6|contador_int [1] $end
$var wire 1 x! inst6|contador_int [0] $end
$upscope $end
$upscope $end
$enddefinitions $end
#0
$dumpvars
0!
0"
0#
1$
1%
1&
0'
0(
b1111 )
b1111 *
b1111 +
b0 ,
0b
1c
0d
1e
1f
1g
0h
0i
0j
1k
1l
0m
1n
1o
1p
0q
0r
1s
0t
0u
0v
0w
0x
0y
0z
0{
0|
1}
0~
1!!
1"!
1#!
0$!
0%!
1&!
1'!
0(!
0)!
1*!
1+!
0,!
0-!
0.!
1/!
00!
01!
02!
03!
04!
05!
06!
07!
08!
09!
1:!
0;!
0<!
1=!
1>!
0?!
1-
0.
0/
00
01
02
13
14
x5
06
17
x8
19
1:
1;
0<
1=
1>
0?
0@
0A
0B
0C
0D
0E
0F
0G
0H
1I
1J
1K
1L
1M
1N
1O
0P
0Q
0R
0S
1T
0U
0V
0W
1X
1Y
0Z
0[
0\
0]
0^
1_
1`
0a
1@!
1A!
0B!
0C!
1D!
1E!
1F!
0G!
1H!
1I!
1J!
1K!
1L!
1M!
1N!
0O!
0P!
1Q!
1R!
1S!
1T!
0U!
0V!
0W!
0X!
1Y!
1Z!
0[!
0\!
1]!
1^!
0_!
1`!
1a!
0b!
1c!
1d!
1e!
0f!
0g!
0h!
0i!
0j!
0k!
0l!
0m!
0n!
0o!
0p!
1q!
0r!
0s!
1t!
0v!
0u!
0x!
0w!
$end
#800
1"
1#
1P
1Q
1S
1R
05
1x!
1u!
1v!
0*!
1)!
1(!
0'!
1*!
0)!
#1600
0"
0#
0P
0Q
0S
0R
15
#2400
1"
1#
1P
1Q
1S
1R
05
#3200
0"
0#
0P
0Q
0S
0R
15
#4000
1"
1#
1P
1Q
1S
1R
05
#4800
0"
0#
0P
0Q
0S
0R
15
#5600
1"
1#
1P
1Q
1S
1R
05
#6400
0"
0#
0P
0Q
0S
0R
15
#7200
1"
1#
1P
1Q
1S
1R
05
#8000
0"
0#
0P
0Q
0S
0R
15
#8800
1"
1#
1P
1Q
1S
1R
05
#9600
0"
0#
0P
0Q
0S
0R
15
#10400
1"
1#
1P
1Q
1S
1R
05
#11200
0"
0#
0P
0Q
0S
0R
15
#12000
1"
1#
1P
1Q
1S
1R
05
#12800
0"
0#
0P
0Q
0S
0R
15
#13600
1"
1#
1P
1Q
1S
1R
05
#14400
0"
0#
0P
0Q
0S
0R
15
#15200
1"
1#
1P
1Q
1S
1R
05
#16000
0"
0#
0P
0Q
0S
0R
15
#16800
1"
1#
1P
1Q
1S
1R
05
#17600
0"
0#
0P
0Q
0S
0R
15
#18400
1"
1#
1P
1Q
1S
1R
05
#19200
0"
0#
0P
0Q
0S
0R
15
#20000
1"
1#
1P
1Q
1S
1R
05
#20800
0"
0#
0P
0Q
0S
0R
15
#21600
1"
1#
1P
1Q
1S
1R
05
#22400
0"
0#
0P
0Q
0S
0R
15
#23200
1"
1#
1P
1Q
1S
1R
05
#24000
0"
0#
0P
0Q
0S
0R
15
#24800
1"
1#
1P
1Q
1S
1R
05
#25600
0"
0#
0P
0Q
0S
0R
15
#26400
1"
1#
1P
1Q
1S
1R
05
#27200
0"
0#
0P
0Q
0S
0R
15
#28000
1"
1#
1P
1Q
1S
1R
05
#28800
0"
0#
0P
0Q
0S
0R
15
#29600
1"
1#
1P
1Q
1S
1R
05
#30400
0"
0#
0P
0Q
0S
0R
15
#31200
1"
1#
1P
1Q
1S
1R
05
#32000
0"
0#
0P
0Q
0S
0R
15
#32800
1"
1#
1P
1Q
1S
1R
05
#33600
0"
0#
0P
0Q
0S
0R
15
#34400
1"
1#
1P
1Q
1S
1R
05
#35200
0"
0#
0P
0Q
0S
0R
15
#36000
1"
1#
1P
1Q
1S
1R
05
#36800
0"
0#
0P
0Q
0S
0R
15
#37600
1"
1#
1P
1Q
1S
1R
05
#38400
0"
0#
0P
0Q
0S
0R
15
#39200
1"
1#
1P
1Q
1S
1R
05
#40000
1!
0"
0#
1\
0P
0Q
1]
0S
0R
15
1_!
1f!
1?!
1r!
1o!
1W!
1V!
0A!
0T
1U
1V
0-
1.
10
0W!
1B!
#40800
1"
1#
1P
1Q
1S
1R
05
1C!
0d!
0]!
0T!
0S!
0=!
0+!
0(!
1'!
0&!
0K
0X
03
0e!
0^!
1T!
0>!
0V!
0*!
1)!
1W!
#41600
0"
0#
0P
0Q
0S
0R
15
#42400
1"
1#
1P
1Q
1S
1R
05
1X!
0x!
1w!
0v!
1d!
1^!
0@!
1(!
0#!
1K
1*!
0Y
04
1e!
1A!
0*!
1~
0B!
#43200
0"
0#
0P
0Q
0S
0R
15
#44000
1"
1#
1P
1Q
1S
1R
05
0C!
0u!
0d!
1=!
1+!
0(!
1&!
1X
13
1>!
1V!
1*!
0W!
#44800
0"
0#
0P
0Q
0S
0R
15
#45600
1"
1#
1P
1Q
1S
1R
05
0X!
1x!
1v!
1d!
0^!
1]!
1S!
1@!
1#!
0~
0*!
0)!
1Y
14
1^!
0A!
1B!
#46400
0"
0#
0P
0Q
0S
0R
15
#47200
1"
1#
1P
1Q
1S
1R
05
1C!
0x!
0w!
1u!
0d!
0]!
0T!
0S!
0=!
0&!
0K
1*!
0X
03
0e!
0^!
1T!
0>!
#48000
0"
0#
0P
0Q
0S
0R
15
#48800
1"
1#
1P
1Q
1S
1R
05
1x!
0v!
0+!
0*!
1)!
1(!
0'!
0V!
1*!
0)!
1W!
#49600
0"
0#
0P
0Q
0S
0R
15
#50400
1"
1#
1P
1Q
1S
1R
05
1X!
1d!
1^!
0@!
1'!
0#!
1K
0Y
04
1e!
1A!
1~
0B!
#51200
0"
0#
0P
0Q
0S
0R
15
#52000
1"
1#
1P
1Q
1S
1R
05
0C!
0u!
0d!
1=!
1+!
0(!
1&!
1X
13
1>!
1V!
0*!
1)!
0W!
#52800
0"
0#
0P
0Q
0S
0R
15
#53600
1"
1#
1P
1Q
1S
1R
05
0X!
0x!
1w!
1v!
1d!
0^!
1]!
1S!
1@!
1#!
0~
1*!
1Y
14
1^!
0A!
1B!
#54400
0"
0#
0P
0Q
0S
0R
15
#55200
1"
1#
1P
1Q
1S
1R
05
1C!
1x!
1u!
0d!
0]!
0T!
0S!
0=!
0+!
0&!
0K
0*!
0)!
0X
03
0e!
0^!
1T!
0>!
0V!
1W!
#56000
0"
0#
0P
0Q
0S
0R
15
#56800
1"
1#
1P
1Q
1S
1R
05
1X!
0x!
0w!
0v!
1d!
1^!
1(!
0#!
1K
1+!
1*!
0Y
04
1e!
0*!
1~
1V!
0W!
#57600
0"
0#
0P
0Q
0S
0R
15
#58400
1"
1#
1P
1Q
1S
1R
05
0X!
0u!
0d!
0^!
0(!
1#!
0~
0K
1Y
14
0e!
1*!
#59200
0"
0#
0P
0Q
0S
0R
15
#60000
1"
1#
1P
1Q
1S
1R
05
1x!
1u!
0+!
0*!
1)!
1(!
0'!
0V!
1*!
0)!
1W!
#60800
0"
0#
0P
0Q
0S
0R
15
#61600
1"
1#
1P
1Q
1S
1R
05
1X!
1d!
1^!
0@!
1'!
0#!
1K
0Y
04
1e!
1A!
1~
0B!
#62400
0"
0#
0P
0Q
0S
0R
15
#63200
1"
1#
1P
1Q
1S
1R
05
0C!
0u!
0d!
1=!
1+!
0(!
1&!
1X
13
1>!
1V!
0*!
1)!
0W!
#64000
0"
0#
0P
0Q
0S
0R
15
#64800
1"
1#
1P
1Q
1S
1R
05
0X!
0x!
1w!
1v!
1d!
0^!
1]!
1S!
1@!
1#!
0~
1*!
1Y
14
1^!
0A!
1B!
#65600
0"
0#
0P
0Q
0S
0R
15
#66400
1"
1#
1P
1Q
1S
1R
05
1C!
1x!
1u!
0d!
0]!
0T!
0S!
0=!
0+!
0&!
0K
0*!
0)!
0X
03
0e!
0^!
1T!
0>!
0V!
1W!
#67200
0"
0#
0P
0Q
0S
0R
15
#68000
1"
1#
1P
1Q
1S
1R
05
1X!
0x!
0w!
0v!
1d!
1^!
1(!
0#!
1K
1+!
1*!
0Y
04
1e!
0*!
1~
1V!
0W!
#68800
0"
0#
0P
0Q
0S
0R
15
#69600
1"
1#
1P
1Q
1S
1R
05
0X!
0u!
0d!
0^!
0(!
1#!
0~
0K
1Y
14
0e!
1*!
#70400
0"
0#
0P
0Q
0S
0R
15
#71200
1"
1#
1P
1Q
1S
1R
05
1x!
1u!
0+!
0*!
1)!
1(!
0'!
0V!
1*!
0)!
1W!
#72000
0"
0#
0P
0Q
0S
0R
15
#72800
1"
1#
1P
1Q
1S
1R
05
1X!
1d!
1^!
0@!
1'!
0#!
1K
0Y
04
1e!
1A!
1~
0B!
#73600
0"
0#
0P
0Q
0S
0R
15
#74400
1"
1#
1P
1Q
1S
1R
05
0C!
0u!
0d!
1=!
1+!
0(!
1&!
1X
13
1>!
1V!
0*!
1)!
0W!
#75200
0"
0#
0P
0Q
0S
0R
15
#76000
1"
1#
1P
1Q
1S
1R
05
0X!
0x!
1w!
1v!
1d!
0^!
1]!
1S!
1@!
1#!
0~
1*!
1Y
14
1^!
0A!
1B!
#76800
0"
0#
0P
0Q
0S
0R
15
#77600
1"
1#
1P
1Q
1S
1R
05
1C!
1x!
1u!
0d!
0]!
0T!
0S!
0=!
0+!
0&!
0K
0*!
0)!
0X
03
0e!
0^!
1T!
0>!
0V!
1W!
#78400
0"
0#
0P
0Q
0S
0R
15
#79200
1"
1#
1P
1Q
1S
1R
05
1X!
0x!
0w!
0v!
1d!
1^!
1(!
0#!
1K
1+!
1*!
0Y
04
1e!
0*!
1~
1V!
0W!
#80000
0!
0"
0#
0\
0P
0Q
0]
0S
0R
15
#80800
1"
1#
1P
1Q
1S
1R
05
0X!
0u!
0d!
0^!
0(!
1#!
0~
0K
1Y
14
0e!
1*!
#81600
0"
0#
0P
0Q
0S
0R
15
#82400
1"
1#
1P
1Q
1S
1R
05
1x!
1u!
0+!
0*!
1)!
1(!
0'!
0V!
1*!
0)!
1W!
#83200
0"
0#
0P
0Q
0S
0R
15
#84000
1"
1#
1P
1Q
1S
1R
05
1X!
1d!
1^!
0@!
1'!
0#!
1K
0Y
04
1e!
1A!
1~
0B!
#84800
0"
0#
0P
0Q
0S
0R
15
#85600
1"
1#
1P
1Q
1S
1R
05
0C!
0u!
0d!
1=!
1+!
0(!
1&!
1X
13
1>!
1V!
0*!
1)!
0W!
#86400
0"
0#
0P
0Q
0S
0R
15
#87200
1"
1#
1P
1Q
1S
1R
05
0X!
0x!
1w!
1v!
1d!
0^!
1]!
1S!
1@!
1#!
0~
1*!
1Y
14
1^!
0A!
1B!
#88000
0"
0#
0P
0Q
0S
0R
15
#88800
1"
1#
1P
1Q
1S
1R
05
1C!
1x!
1u!
0d!
0]!
0T!
0S!
0=!
0+!
0&!
0K
0*!
0)!
0X
03
0e!
0^!
1T!
0>!
0V!
1W!
#89600
0"
0#
0P
0Q
0S
0R
15
#90400
1"
1#
1P
1Q
1S
1R
05
1X!
0x!
0w!
0v!
1d!
1^!
1(!
0#!
1K
1+!
1*!
0Y
04
1e!
0*!
1~
1V!
0W!
#91200
0"
0#
0P
0Q
0S
0R
15
#92000
1"
1#
1P
1Q
1S
1R
05
0X!
0u!
0d!
0^!
0(!
1#!
0~
0K
1Y
14
0e!
1*!
#92800
0"
0#
0P
0Q
0S
0R
15
#93600
1"
1#
1P
1Q
1S
1R
05
1x!
1u!
0+!
0*!
1)!
1(!
0'!
0V!
1*!
0)!
1W!
#94400
0"
0#
0P
0Q
0S
0R
15
#95200
1"
1#
1P
1Q
1S
1R
05
1X!
1d!
1^!
0@!
1'!
0#!
1K
0Y
04
1e!
1A!
1~
0B!
#96000
0"
0#
0P
0Q
0S
0R
15
#96800
1"
1#
1P
1Q
1S
1R
05
0C!
0u!
0d!
1=!
1+!
0(!
1&!
1X
13
1>!
1V!
0*!
1)!
0W!
#97600
0"
0#
0P
0Q
0S
0R
15
#98400
1"
1#
1P
1Q
1S
1R
05
0X!
0x!
1w!
1v!
1d!
0^!
1]!
1S!
1@!
1#!
0~
1*!
1Y
14
1^!
0A!
1B!
#99200
0"
0#
0P
0Q
0S
0R
15
#100000
1"
1#
1P
1Q
1S
1R
05
1C!
1x!
1u!
0d!
0]!
0T!
0S!
0=!
0+!
0&!
0K
0*!
0)!
0X
03
0e!
0^!
1T!
0>!
0V!
1W!
#100800
0"
0#
0P
0Q
0S
0R
15
#101600
1"
1#
1P
1Q
1S
1R
05
1X!
0x!
0w!
0v!
1d!
1^!
1(!
0#!
1K
1+!
1*!
0Y
04
1e!
0*!
1~
1V!
0W!
#102400
0"
0#
0P
0Q
0S
0R
15
#103200
1"
1#
1P
1Q
1S
1R
05
0X!
0u!
0d!
0^!
0(!
1#!
0~
0K
1Y
14
0e!
1*!
#104000
0"
0#
0P
0Q
0S
0R
15
#104800
1"
1#
1P
1Q
1S
1R
05
1x!
1u!
0+!
0*!
1)!
1(!
0'!
0V!
1*!
0)!
1W!
#105600
0"
0#
0P
0Q
0S
0R
15
#106400
1"
1#
1P
1Q
1S
1R
05
1X!
1d!
1^!
0@!
1'!
0#!
1K
0Y
04
1e!
1A!
1~
0B!
#107200
0"
0#
0P
0Q
0S
0R
15
#108000
1"
1#
1P
1Q
1S
1R
05
0C!
0u!
0d!
1=!
1+!
0(!
1&!
1X
13
1>!
1V!
0*!
1)!
0W!
#108800
0"
0#
0P
0Q
0S
0R
15
#109600
1"
1#
1P
1Q
1S
1R
05
0X!
0x!
1w!
1v!
1d!
0^!
1]!
1S!
1@!
1#!
0~
1*!
1Y
14
1^!
0A!
1B!
#110400
0"
0#
0P
0Q
0S
0R
15
#111200
1"
1#
1P
1Q
1S
1R
05
1C!
1x!
1u!
0d!
0]!
0T!
0S!
0=!
0+!
0&!
0K
0*!
0)!
0X
03
0e!
0^!
1T!
0>!
0V!
1W!
#112000
0"
0#
0P
0Q
0S
0R
15
#112800
1"
1#
1P
1Q
1S
1R
05
1X!
0x!
0w!
0v!
1d!
1^!
1(!
0#!
1K
1+!
1*!
0Y
04
1e!
0*!
1~
1V!
0W!
#113600
0"
0#
0P
0Q
0S
0R
15
#114400
1"
1#
1P
1Q
1S
1R
05
0X!
0u!
0d!
0^!
0(!
1#!
0~
0K
1Y
14
0e!
1*!
#115200
0"
0#
0P
0Q
0S
0R
15
#116000
1"
1#
1P
1Q
1S
1R
05
1x!
1u!
0+!
0*!
1)!
1(!
0'!
0V!
1*!
0)!
1W!
#116800
0"
0#
0P
0Q
0S
0R
15
#117600
1"
1#
1P
1Q
1S
1R
05
1X!
1d!
1^!
0@!
1'!
0#!
1K
0Y
04
1e!
1A!
1~
0B!
#118400
0"
0#
0P
0Q
0S
0R
15
#119200
1"
1#
1P
1Q
1S
1R
05
0C!
0u!
0d!
1=!
1+!
0(!
1&!
1X
13
1>!
1V!
0*!
1)!
0W!
#120000
1!
0"
0#
1\
0P
0Q
1]
0S
0R
15
1s!
1p!
1U!
1k!
0q!
0r!
1l!
1B!
1W
1/
0l!
1g!
1Z
12
#120800
1"
1#
1P
1Q
1S
1R
05
0X!
1C!
0x!
1w!
1v!
0^!
1@!
0=!
1#!
0~
0K
0e!
0+!
0&!
1*!
1Y
0X
14
03
0>!
0B!
#121600
0"
0#
0P
0Q
0S
0R
15
#122400
1"
1#
1P
1Q
1S
1R
05
0C!
1x!
1u!
0v!
1e!
1d!
1]!
1S!
1=!
1+!
1&!
1K
0*!
0)!
1X
13
1^!
1>!
0V!
1B!
1W!
#123200
0"
0#
0P
0Q
0S
0R
15
#124000
1"
1#
1P
1Q
1S
1R
05
1X!
1C!
0x!
0w!
1v!
0^!
0]!
0S!
0=!
1(!
0#!
1~
0T!
0&!
1*!
0Y
0X
04
03
1^!
1T!
0>!
0*!
#124800
0"
0#
0P
0Q
0S
0R
15
#125600
1"
1#
1P
1Q
1S
1R
05
0u!
0v!
0'!
#126400
0"
0#
0P
0Q
0S
0R
15
#127200
1"
1#
1P
1Q
1S
1R
05
#128000
0"
0#
0P
0Q
0S
0R
15
#128800
1"
1#
1P
1Q
1S
1R
05
#129600
0"
0#
0P
0Q
0S
0R
15
#130400
1"
1#
1P
1Q
1S
1R
05
#131200
0"
0#
0P
0Q
0S
0R
15
#132000
1"
1#
1P
1Q
1S
1R
05
#132800
0"
0#
0P
0Q
0S
0R
15
#133600
1"
1#
1P
1Q
1S
1R
05
#134400
0"
0#
0P
0Q
0S
0R
15
#135200
1"
1#
1P
1Q
1S
1R
05
#136000
0"
0#
0P
0Q
0S
0R
15
#136800
1"
1#
1P
1Q
1S
1R
05
#137600
0"
0#
0P
0Q
0S
0R
15
#138400
1"
1#
1P
1Q
1S
1R
05
#139200
0"
0#
0P
0Q
0S
0R
15
#140000
1"
1#
1P
1Q
1S
1R
05
#140800
0"
0#
0P
0Q
0S
0R
15
#141600
1"
1#
1P
1Q
1S
1R
05
#142400
0"
0#
0P
0Q
0S
0R
15
#143200
1"
1#
1P
1Q
1S
1R
05
#144000
0"
0#
0P
0Q
0S
0R
15
#144800
1"
1#
1P
1Q
1S
1R
05
#145600
0"
0#
0P
0Q
0S
0R
15
#146400
1"
1#
1P
1Q
1S
1R
05
#147200
0"
0#
0P
0Q
0S
0R
15
#148000
1"
1#
1P
1Q
1S
1R
05
#148800
0"
0#
0P
0Q
0S
0R
15
#149600
1"
1#
1P
1Q
1S
1R
05
#150400
0"
0#
0P
0Q
0S
0R
15
#151200
1"
1#
1P
1Q
1S
1R
05
#152000
0"
0#
0P
0Q
0S
0R
15
#152800
1"
1#
1P
1Q
1S
1R
05
#153600
0"
0#
0P
0Q
0S
0R
15
#154400
1"
1#
1P
1Q
1S
1R
05
#155200
0"
0#
0P
0Q
0S
0R
15
#156000
1"
1#
1P
1Q
1S
1R
05
#156800
0"
0#
0P
0Q
0S
0R
15
#157600
1"
1#
1P
1Q
1S
1R
05
#158400
0"
0#
0P
0Q
0S
0R
15
#159200
1"
1#
1P
1Q
1S
1R
05
#160000
0!
0"
0#
0\
0P
0Q
0]
0S
0R
15
#160800
1"
1#
1P
1Q
1S
1R
05
#161600
0"
0#
0P
0Q
0S
0R
15
#162400
1"
1#
1P
1Q
1S
1R
05
#163200
0"
0#
0P
0Q
0S
0R
15
#164000
1"
1#
1P
1Q
1S
1R
05
#164800
0"
0#
0P
0Q
0S
0R
15
#165600
1"
1#
1P
1Q
1S
1R
05
#166400
0"
0#
0P
0Q
0S
0R
15
#167200
1"
1#
1P
1Q
1S
1R
05
#168000
0"
0#
0P
0Q
0S
0R
15
#168800
1"
1#
1P
1Q
1S
1R
05
#169600
0"
0#
0P
0Q
0S
0R
15
#170400
1"
1#
1P
1Q
1S
1R
05
#171200
0"
0#
0P
0Q
0S
0R
15
#172000
1"
1#
1P
1Q
1S
1R
05
#172800
0"
0#
0P
0Q
0S
0R
15
#173600
1"
1#
1P
1Q
1S
1R
05
#174400
0"
0#
0P
0Q
0S
0R
15
#175200
1"
1#
1P
1Q
1S
1R
05
#176000
0"
0#
0P
0Q
0S
0R
15
#176800
1"
1#
1P
1Q
1S
1R
05
#177600
0"
0#
0P
0Q
0S
0R
15
#178400
1"
1#
1P
1Q
1S
1R
05
#179200
0"
0#
0P
0Q
0S
0R
15
#180000
1"
1#
1P
1Q
1S
1R
05
#180800
0"
0#
0P
0Q
0S
0R
15
#181600
1"
1#
1P
1Q
1S
1R
05
#182400
0"
0#
0P
0Q
0S
0R
15
#183200
1"
1#
1P
1Q
1S
1R
05
#184000
0"
0#
0P
0Q
0S
0R
15
#184800
1"
1#
1P
1Q
1S
1R
05
#185600
0"
0#
0P
0Q
0S
0R
15
#186400
1"
1#
1P
1Q
1S
1R
05
#187200
0"
0#
0P
0Q
0S
0R
15
#188000
1"
1#
1P
1Q
1S
1R
05
#188800
0"
0#
0P
0Q
0S
0R
15
#189600
1"
1#
1P
1Q
1S
1R
05
#190400
0"
0#
0P
0Q
0S
0R
15
#191200
1"
1#
1P
1Q
1S
1R
05
#192000
0"
0#
0P
0Q
0S
0R
15
#192800
1"
1#
1P
1Q
1S
1R
05
#193600
0"
0#
0P
0Q
0S
0R
15
#194400
1"
1#
1P
1Q
1S
1R
05
#195200
0"
0#
0P
0Q
0S
0R
15
#196000
1"
1#
1P
1Q
1S
1R
05
#196800
0"
0#
0P
0Q
0S
0R
15
#197600
1"
1#
1P
1Q
1S
1R
05
#198400
0"
0#
0P
0Q
0S
0R
15
#199200
1"
1#
1P
1Q
1S
1R
05
#200000
1!
0"
0#
1\
0P
0Q
1]
0S
0R
15
0s!
1j!
0?!
0t!
0k!
1q!
1n!
0o!
0g!
0B!
0V
00
1o!
1l!
1[
0Z
11
02
#200800
1"
1#
1P
1Q
1S
1R
05
0C!
0d!
1=!
0(!
1'!
1&!
1X
13
1>!
1*!
#201600
0"
0#
0P
0Q
0S
0R
15
#202400
1"
1#
1P
1Q
1S
1R
05
1x!
1v!
0@!
0*!
1)!
1(!
0'!
0A!
1*!
0)!
1B!
#203200
0"
0#
0P
0Q
0S
0R
15
#204000
1"
1#
1P
1Q
1S
1R
05
1C!
0e!
1d!
0=!
0+!
1'!
0&!
0X
03
1e!
0>!
1V!
0W!
#204800
0"
0#
0P
0Q
0S
0R
15
#205600
1"
1#
1P
1Q
1S
1R
05
0X!
0v!
0d!
0^!
1@!
0(!
1#!
0~
0K
1Y
14
0e!
1A!
0*!
1)!
0B!
#206400
0"
0#
0P
0Q
0S
0R
15
#207200
1"
1#
1P
1Q
1S
1R
05
0C!
0x!
1w!
1u!
1e!
1d!
1]!
1S!
1=!
1+!
1&!
1K
1*!
1X
13
1^!
1>!
0V!
1W!
#208000
0"
0#
0P
0Q
0S
0R
15
