orientacion2/simulation/qsim/orientacion.msim.vcd
$comment
	File created using the following command:
		vcd file orientacion.msim.vcd -direction
$end
$date
	Sat Nov 30 15:55:27 2024
$end
$version
	ModelSim Version 10.1d
$end
$timescale
	1ps
$end
$scope module orientacion_vlg_vec_tst $end
$var reg 1 ! clk $end
$var reg 1 " gd $end
$var reg 1 # gi $end
$var reg 1 $ reset $end
$var reg 1 % tc1 $end
$var reg 1 & tc2 $end
$var wire 1 ' clearcountdoblar $end
$var wire 1 ( o0 $end
$var wire 1 ) o1 $end
$var wire 1 * sampler $end
$scope module i1 $end
$var wire 1 + gnd $end
$var wire 1 , vcc $end
$var wire 1 - unknown $end
$var tri1 1 . devclrn $end
$var tri1 1 / devpor $end
$var tri1 1 0 devoe $end
$var wire 1 1 Selector5~1_combout $end
$var wire 1 2 Selector6~0_combout $end
$var wire 1 3 Selector7~0_combout $end
$var wire 1 4 Equal0~0_combout $end
$var wire 1 5 tc1~input_o $end
$var wire 1 6 clearcountdoblar~output_o $end
$var wire 1 7 o0~output_o $end
$var wire 1 8 o1~output_o $end
$var wire 1 9 gi~input_o $end
$var wire 1 : gd~input_o $end
$var wire 1 ; tc2~input_o $end
$var wire 1 < Selector5~0_combout $end
$var wire 1 = Mux0~0_combout $end
$var wire 1 > Selector7~1_combout $end
$var wire 1 ? Selector4~2_combout $end
$var wire 1 @ Selector1~0_combout $end
$var wire 1 A reset~input_o $end
$var wire 1 B reset~inputclkctrl_outclk $end
$var wire 1 C state.Sd~q $end
$var wire 1 D Selector4~1_combout $end
$var wire 1 E Selector4~0_combout $end
$var wire 1 F Selector4~3_combout $end
$var wire 1 G state.Ng~q $end
$var wire 1 H Selector0~0_combout $end
$var wire 1 I state.Nd~q $end
$var wire 1 J Selector7~2_combout $end
$var wire 1 K Selector7~3_combout $end
$var wire 1 L state.Og~q $end
$var wire 1 M Selector3~0_combout $end
$var wire 1 N state.Od~q $end
$var wire 1 O Selector6~1_combout $end
$var wire 1 P Selector6~2_combout $end
$var wire 1 Q Selector6~3_combout $end
$var wire 1 R state.Eg~q $end
$var wire 1 S Selector2~0_combout $end
$var wire 1 T state.Ed~q $end
$var wire 1 U Selector5~2_combout $end
$var wire 1 V Selector5~3_combout $end
$var wire 1 W state.Sg~q $end
$var wire 1 X process_2~0_combout $end
$var wire 1 Y clk~input_o $end
$var wire 1 Z clk~inputclkctrl_outclk $end
$var wire 1 [ Selector8~0_combout $end
$var wire 1 \ Selector8~1_combout $end
$var wire 1 ] o0_reg~q $end
$var wire 1 ^ Selector9~0_combout $end
$var wire 1 _ Selector9~1_combout $end
$var wire 1 ` o1_reg~q $end
$var wire 1 a g [3] $end
$var wire 1 b g [2] $end
$var wire 1 c g [1] $end
$var wire 1 d g [0] $end
$upscope $end
$upscope $end
$enddefinitions $end
#0
$dumpvars
0!
1"
0#
0$
1%
0&
1'
1(
1)
x*
0+
1,
x-
1.
1/
10
01
02
03
04
15
16
17
18
09
1:
0;
0<
1=
0>
0?
0@
0A
0B
0C
0D
0E
0F
0G
1H
0I
0J
0K
0L
0M
0N
0O
1P
1Q
0R
0S
0T
0U
0V
0W
0X
0Y
0Z
1[
0\
0]
1^
0_
0`
zd
1c
zb
za
$end
#5000
1!
1Y
1Z
0*
#10000
1$
0!
1A
0Y
1B
0Z
1*
#15000
1!
1Y
1Z
0*
1R
1I
1X
12
0P
06
0'
#20000
0!
0Y
0Z
1*
#25000
1!
1Y
1Z
0*
#30000
0!
0Y
0Z
1*
#35000
1!
1Y
1Z
0*
#40000
0!
0Y
0Z
1*
#45000
1!
1Y
1Z
0*
#50000
0!
0Y
0Z
1*
#55000
1!
1Y
1Z
0*
#60000
0!
0Y
0Z
1*
#65000
1!
1Y
1Z
0*
#70000
0!
0Y
0Z
1*
#75000
1!
1Y
1Z
0*
#80000
0!
0Y
0Z
1*
#85000
1!
1Y
1Z
0*
#90000
0!
0Y
0Z
1*
#95000
1!
1Y
1Z
0*
#100000
0!
0Y
0Z
1*
#105000
1!
1Y
1Z
0*
#110000
0"
0!
0:
0Y
0Z
1*
0=
0c
14
02
1S
0Q
#115000
1!
1Y
1Z
0*
1T
0R
0^
0X
1_
16
1'
#120000
0%
0!
05
0Y
0Z
1*
#125000
1!
1Y
1Z
0*
1`
08
0)
#130000
0!
0Y
0Z
1*
#135000
1!
1Y
1Z
0*
#140000
1%
0!
15
0Y
0Z
1*
#145000
1!
1Y
1Z
0*
#150000
0!
0Y
0Z
1*
#155000
1!
1Y
1Z
0*
#160000
0!
0Y
0Z
1*
#165000
1!
1Y
1Z
0*
#170000
0!
0Y
0Z
1*
#175000
1!
1Y
1Z
0*
#180000
0!
0Y
0Z
1*
#185000
1!
1Y
1Z
0*
#190000
0!
0Y
0Z
1*
#195000
1!
1Y
1Z
0*
#200000
0!
0Y
0Z
1*
#205000
1!
1Y
1Z
0*
#210000
0!
0Y
0Z
1*
#215000
1!
1Y
1Z
0*
#220000
0!
0Y
0Z
1*
#225000
1!
1Y
1Z
0*
#230000
0!
0Y
0Z
1*
#235000
1!
1Y
1Z
0*
#240000
0!
0Y
0Z
1*
#245000
1!
1Y
1Z
0*
#250000
0!
0Y
0Z
1*
#255000
1!
1Y
1Z
0*
#260000
0!
0Y
0Z
1*
#265000
1!
1Y
1Z
0*
#270000
0!
0Y
0Z
1*
#275000
1!
1Y
1Z
0*
#280000
0!
0Y
0Z
1*
#285000
1!
1Y
1Z
0*
#290000
0!
0Y
0Z
1*
#295000
1!
1Y
1Z
0*
#300000
0!
0Y
0Z
1*
#305000
1!
1Y
1Z
0*
#310000
0!
0Y
0Z
1*
#315000
1!
1Y
1Z
0*
#320000
0!
0Y
0Z
1*
#325000
1!
1Y
1Z
0*
#330000
0!
0Y
0Z
1*
#335000
1!
1Y
1Z
0*
#340000
0!
0Y
0Z
1*
#345000
1!
1Y
1Z
0*
#350000
0!
0Y
0Z
1*
#355000
1!
1Y
1Z
0*
#360000
0!
0Y
0Z
1*
#365000
1!
1Y
1Z
0*
#370000
0!
0Y
0Z
1*
#375000
1!
1Y
1Z
0*
#380000
0!
0Y
0Z
1*
#385000
1!
1Y
1Z
0*
#390000
0!
0Y
0Z
1*
#395000
1!
1Y
1Z
0*
#400000
0!
0Y
0Z
1*
#405000
1!
1Y
1Z
0*
#410000
0!
0Y
0Z
1*
#415000
1!
1Y
1Z
0*
#420000
0!
0Y
0Z
1*
#425000
1!
1Y
1Z
0*
#430000
0!
0Y
0Z
1*
#435000
1!
1Y
1Z
0*
#440000
0!
0Y
0Z
1*
#445000
1!
1Y
1Z
0*
#450000
0!
0Y
0Z
1*
#455000
1!
1Y
1Z
0*
#460000
0!
0Y
0Z
1*
#465000
1!
1Y
1Z
0*
#470000
0!
0Y
0Z
1*
#475000
1!
1Y
1Z
0*
#480000
0!
0Y
0Z
1*
#485000
1!
1Y
1Z
0*
#490000
0!
0Y
0Z
1*
#495000
1!
1Y
1Z
0*
#500000
0!
0Y
0Z
1*
#505000
1!
1Y
1Z
0*
#510000
0!
0Y
0Z
1*
#515000
1!
1Y
1Z
0*
#520000
0!
0Y
0Z
1*
#525000
1!
1Y
1Z
0*
#530000
0!
0Y
0Z
1*
#535000
1!
1Y
1Z
0*
#540000
0!
0Y
0Z
1*
#545000
1!
1Y
1Z
0*
#550000
0!
0Y
0Z
1*
#555000
1!
1Y
1Z
0*
#560000
0!
0Y
0Z
1*
#565000
1!
1Y
1Z
0*
#570000
0!
0Y
0Z
1*
#575000
1!
1Y
1Z
0*
#580000
0!
0Y
0Z
1*
#585000
1!
1Y
1Z
0*
#590000
0!
0Y
0Z
1*
#595000
1!
1Y
1Z
0*
#600000
0!
0Y
0Z
1*
#605000
1!
1Y
1Z
0*
#610000
0!
0Y
0Z
1*
#615000
1!
1Y
1Z
0*
#620000
0!
0Y
0Z
1*
#625000
1!
1Y
1Z
0*
#630000
0!
0Y
0Z
1*
#635000
1!
1Y
1Z
0*
#640000
0!
0Y
0Z
1*
#645000
1!
1Y
1Z
0*
#650000
0!
0Y
0Z
1*
#655000
1!
1Y
1Z
0*
#660000
0!
0Y
0Z
1*
#665000
1!
1Y
1Z
0*
#670000
0!
0Y
0Z
1*
#675000
1!
1Y
1Z
0*
#680000
0!
0Y
0Z
1*
#685000
1!
1Y
1Z
0*
#690000
0!
0Y
0Z
1*
#695000
1!
1Y
1Z
0*
#700000
0!
0Y
0Z
1*
#705000
1!
1Y
1Z
0*
#710000
0!
0Y
0Z
1*
#715000
1!
1Y
1Z
0*
#720000
0!
0Y
0Z
1*
#725000
1!
1Y
1Z
0*
#730000
0!
0Y
0Z
1*
#735000
1!
1Y
1Z
0*
#740000
0!
0Y
0Z
1*
#745000
1!
1Y
1Z
0*
#750000
0!
0Y
0Z
1*
#755000
1!
1Y
1Z
0*
#760000
0!
0Y
0Z
1*
#765000
1!
1Y
1Z
0*
#770000
0!
0Y
0Z
1*
#775000
1!
1Y
1Z
0*
#780000
0!
0Y
0Z
1*
#785000
1!
1Y
1Z
0*
#790000
0!
0Y
0Z
1*
#795000
1!
1Y
1Z
0*
#800000
0!
0Y
0Z
1*
#805000
1!
1Y
1Z
0*
#810000
0!
0Y
0Z
1*
#815000
1!
1Y
1Z
0*
#820000
0!
0Y
0Z
1*
#825000
1!
1Y
1Z
0*
#830000
0!
0Y
0Z
1*
#835000
1!
1Y
1Z
0*
#840000
0!
0Y
0Z
1*
#845000
1!
1Y
1Z
0*
#850000
0!
0Y
0Z
1*
#855000
1!
1Y
1Z
0*
#860000
0!
0Y
0Z
1*
#865000
1!
1Y
1Z
0*
#870000
0!
0Y
0Z
1*
#875000
1!
1Y
1Z
0*
#880000
0!
0Y
0Z
1*
#885000
1!
1Y
1Z
0*
#890000
0!
0Y
0Z
1*
#895000
1!
1Y
1Z
0*
#900000
0!
0Y
0Z
1*
#905000
1!
1Y
1Z
0*
#910000
0!
0Y
0Z
1*
#915000
1!
1Y
1Z
0*
#920000
0!
0Y
0Z
1*
#925000
1!
1Y
1Z
0*
#930000
0!
0Y
0Z
1*
#935000
1!
1Y
1Z
0*
#940000
0!
0Y
0Z
1*
#945000
1!
1Y
1Z
0*
#950000
0!
0Y
0Z
1*
#955000
1!
1Y
1Z
0*
#960000
0!
0Y
0Z
1*
#965000
1!
1Y
1Z
0*
#970000
0!
0Y
0Z
1*
#975000
1!
1Y
1Z
0*
#980000
0!
0Y
0Z
1*
#985000
1!
1Y
1Z
0*
#990000
0!
0Y
0Z
1*
#995000
1!
1Y
1Z
0*
