control/simulation/qsim/control.msim.vcd
$comment
	File created using the following command:
		vcd file control.msim.vcd -direction
$end
$date
	Sun Dec 01 13:32:48 2024
$end
$version
	ModelSim Version 10.1d
$end
$timescale
	1ps
$end
$scope module control3_vlg_vec_tst $end
$var reg 1 ! clk $end
$var reg 1 " ea $end
$var reg 1 # O0 $end
$var reg 1 $ O1 $end
$var reg 1 % reset $end
$var reg 1 & s $end
$var wire 1 ' M [3] $end
$var wire 1 ( M [2] $end
$var wire 1 ) M [1] $end
$var wire 1 * M [0] $end
$var wire 1 + sampler $end
$scope module i1 $end
$var wire 1 , gnd $end
$var wire 1 - vcc $end
$var wire 1 . unknown $end
$var tri1 1 / devclrn $end
$var tri1 1 0 devpor $end
$var tri1 1 1 devoe $end
$var wire 1 2 O0~input_o $end
$var wire 1 3 M[0]~output_o $end
$var wire 1 4 M[1]~output_o $end
$var wire 1 5 M[2]~output_o $end
$var wire 1 6 M[3]~output_o $end
$var wire 1 7 clk~input_o $end
$var wire 1 8 clk~inputclkctrl_outclk $end
$var wire 1 9 ea~input_o $end
$var wire 1 : s~input_o $end
$var wire 1 ; O1~input_o $end
$var wire 1 < Mux1~0_combout $end
$var wire 1 = M_int0~0_combout $end
$var wire 1 > reset~input_o $end
$var wire 1 ? reset~inputclkctrl_outclk $end
$var wire 1 @ M_int0~q $end
$var wire 1 A M_int2~0_combout $end
$var wire 1 B M_int1~0_combout $end
$var wire 1 C M_int1~q $end
$var wire 1 D M_int2~1_combout $end
$var wire 1 E M_int2~q $end
$var wire 1 F M_int3~0_combout $end
$var wire 1 G M_int3~q $end
$upscope $end
$upscope $end
$enddefinitions $end
#0
$dumpvars
0!
1"
0#
1$
0%
0&
0*
0)
0(
0'
x+
0,
1-
x.
1/
10
11
02
03
04
05
06
07
08
19
0:
1;
0<
0=
0>
0?
0@
0A
0B
0C
0D
0E
0F
0G
$end
#10000
1%
1>
1?
0+
#50000
1!
17
18
1+
#100000
0!
07
08
0+
#150000
1!
17
18
1+
#200000
0!
07
08
0+
#240000
1&
1:
1+
1<
1=
#250000
1!
17
18
0+
1@
13
1*
#300000
0!
07
08
1+
#350000
1!
17
18
0+
#370000
0&
0:
1+
0<
#400000
0!
07
08
0+
#450000
1!
17
18
1+
#500000
0!
07
08
0+
#520000
1#
12
1+
#540000
1&
1:
0+
1<
1F
#550000
1!
17
18
1+
1G
16
1'
#570000
0&
0:
0+
0<
#600000
0!
07
08
1+
#650000
1!
17
18
0+
#700000
0!
07
08
1+
#730000
0%
0>
0?
0+
0G
0@
0F
0=
06
03
0'
0*
#750000
1!
17
18
1+
#780000
1%
1>
1?
0+
#800000
0!
07
08
1+
#850000
1!
17
18
0+
#900000
0!
07
08
1+
#950000
1!
17
18
0+
