sensorlinea/simulation/qsim/sensorlinea.msim.vcd
$comment
	File created using the following command:
		vcd file sensorlinea.msim.vcd -direction
$end
$date
	Sun Dec 01 19:09:04 2024
$end
$version
	ModelSim Version 10.1d
$end
$timescale
	1ps
$end
$scope module sensorlinea_vlg_vec_tst $end
$var reg 1 ! clock $end
$var reg 1 " reset $end
$var reg 1 # sensorlinea $end
$var wire 1 $ sensorlimpio $end
$var wire 1 % sampler $end
$scope module i1 $end
$var wire 1 & gnd $end
$var wire 1 ' vcc $end
$var wire 1 ( unknown $end
$var tri1 1 ) devclrn $end
$var tri1 1 * devpor $end
$var tri1 1 + devoe $end
$var wire 1 , clock~input_o $end
$var wire 1 - clock~inputclkctrl_outclk $end
$var wire 1 . sensorlimpio~output_o $end
$var wire 1 / sensorlinea~input_o $end
$var wire 1 0 fstate.blanco4~feeder_combout $end
$var wire 1 1 reset~input_o $end
$var wire 1 2 reset~inputclkctrl_outclk $end
$var wire 1 3 fstate.blanco4~q $end
$var wire 1 4 fstate.blanco5~feeder_combout $end
$var wire 1 5 fstate.blanco5~q $end
$var wire 1 6 Selector2~0_combout $end
$var wire 1 7 fstate.negro~q $end
$var wire 1 8 reg_fstate.negro1~0_combout $end
$var wire 1 9 fstate.negro1~q $end
$var wire 1 : fstate.negro2~feeder_combout $end
$var wire 1 ; fstate.negro2~q $end
$var wire 1 < fstate.negro3~feeder_combout $end
$var wire 1 = fstate.negro3~q $end
$var wire 1 > fstate.negro4~feeder_combout $end
$var wire 1 ? fstate.negro4~q $end
$var wire 1 @ fstate.negro5~feeder_combout $end
$var wire 1 A fstate.negro5~q $end
$var wire 1 B Selector0~0_combout $end
$var wire 1 C fstate.blanco~q $end
$var wire 1 D reg_fstate.blanco1~0_combout $end
$var wire 1 E fstate.blanco1~q $end
$var wire 1 F fstate.blanco2~feeder_combout $end
$var wire 1 G fstate.blanco2~q $end
$var wire 1 H fstate.blanco3~feeder_combout $end
$var wire 1 I fstate.blanco3~q $end
$var wire 1 J WideOr4~0_combout $end
$var wire 1 K WideOr4~combout $end
$upscope $end
$upscope $end
$enddefinitions $end
#0
$dumpvars
0!
1"
1#
1$
x%
0&
1'
x(
1)
1*
1+
0,
0-
1.
1/
00
11
12
03
04
05
06
07
08
09
0:
0;
0<
0=
0>
0?
0@
0A
0B
0C
0D
0E
0F
0G
0H
0I
1J
1K
$end
#10000
0"
01
02
0%
#25000
1!
1,
1-
1%
#40000
0#
0/
0%
1D
1B
#50000
0!
0,
0-
1%
#75000
1!
1,
1-
0%
1E
1C
1F
0D
#100000
0!
0,
0-
1%
#125000
1!
1,
1-
0%
1G
0E
1H
0F
#150000
0!
0,
0-
1%
#175000
1!
1,
1-
0%
1I
0G
10
0J
0H
#200000
1#
0!
1/
0,
0-
1%
#225000
1!
1,
1-
0%
0I
13
00
14
#250000
0#
0!
0/
0,
0-
1%
#275000
1!
1,
1-
0%
15
03
1J
16
04
0K
0.
0$
1K
1.
1$
#300000
0!
0,
0-
1%
#325000
1!
1,
1-
0%
17
05
0J
0K
0.
0$
#350000
0!
0,
0-
1%
#375000
1!
1,
1-
0%
#400000
0!
0,
0-
1%
#425000
1!
1,
1-
0%
#450000
0!
0,
0-
1%
#475000
1!
1,
1-
0%
#500000
0!
0,
0-
1%
#525000
1!
1,
1-
0%
#550000
0!
0,
0-
1%
#575000
1!
1,
1-
0%
#600000
0!
0,
0-
1%
#625000
1!
1,
1-
0%
#650000
0!
0,
0-
1%
#675000
1!
1,
1-
0%
#690000
1#
1/
1%
18
06
#700000
0!
0,
0-
0%
#725000
1!
1,
1-
1%
19
07
1:
08
#750000
0!
0,
0-
0%
#770000
0#
0/
1%
#775000
1!
1,
1-
0%
1;
09
1<
0:
#800000
1#
0!
1/
0,
0-
1%
#825000
1!
1,
1-
0%
1=
0;
1>
0<
#850000
0!
0,
0-
1%
#875000
1!
1,
1-
0%
1?
0=
1@
0>
#900000
0!
0,
0-
1%
#925000
1!
1,
1-
0%
1A
0?
0B
0@
#950000
0!
0,
0-
1%
#975000
1!
1,
1-
0%
0C
0A
1J
1K
1.
1$
